{
  "users" : {
      "user1" : {
        "rfid" : 12,
        "creationTime" : "default",
        "firstName" : "default",
        "lastName" : "default",
        "modifiedTime" : "default",
        "groups" : {
            "children":true
          }
      },
      "user2" : {
        "id" : 12,
        "creationTime" : "default",
        "firstName" : "default",
        "lastName" : "default",
        "modifiedTime" : "default",
        "groups" : {
            "guardians":true
          }
      }
  },
  "kiosks" : {
    "kiosk1" :{
      "id" : 1234567890,
      "schools": {
        "school1" : true
      }
    }

  },
  "zones" : {
    "-KPqdR2NzHKTnArGDLos" : {
      "content" : "This is a drawn polygon",
      "name" : "TEST",
      "pathsString" : "rsrlE}wjxY`bqKpvtLiqfF}j_A",
      "type" : "Yellow",
      "schools": {
        "school1" : true
      }
    },
    "-KPqup2Bk2Fpbq0HV1U9" : {
      "content" : "This is a drawn polygon",
      "name" : "fdsfd",
      "pathsString" : "nxrnEk|zuZfbhFsjtJv|rAhfvT",
      "type" : "Red"
    }
  },
  "groups" : {
    "group1" : {
      "group_name": "Guardians",
      "group_descritipn": "guardians of the children",
      "members": {
        "user2" : true
      }
    },
    "group2" : {
        "group_name": "Children",
        "group_descritipn": "Children of the school",
        "members": {
          "user1" : true
        }
    }
  },
  "schools" : {
    "school1" : {
      "group_name": "name1",
      "group_descritipn": "bla bla",
      "kiosks": {
        "kiosk1" : true
      },
      "zones": {
        "-KPqdR2NzHKTnArGDLos" : true
      }
    }
  }
}
