guardianid,givenname,familyname,friendlyname,mobilenumber,phonenumber,emailaddress,lastknownlatitude,lastknownlongtitude,lastknownetaseconds,lastrecordedlocationtimestamp
1,Test,Guardian,AndroidSingleDevice,Test,Test,test@test.com,,,,
11,Test,Guardian,AndroidMultipleDevices,Test,Test,test@test.com,,,,
12,Test,Guardian,AppleSingleDevice,Test,Test,test@test.com,,,,
13,Test,Guardian,AppleMultipleDevices,Test,Test,test@test.com,,,,
14,Test,Guardian,UpdateTest,Test,Test,test@test.com,,,,
15,Test,Guardian,EtaTest,Test,Test,test@test.com,,,,
16,Test,Guardian,MobileTest,0123456,Test,test@test.com,,,,
17,Test,Guardian,ScheduleTest,Test,Test,test@test.com,,,,
4,James,Farson,Jim,12341234,23452345,Jim@test.com,,,,
42,Samuel,Lyon,Sam,44332211,11223344,Sam@test.com,,,,
43,John,Lim,Jon,44444444,11114444,Jon@test.com,,,,